<?xml version="1.0" encoding="utf-8"?>
<!-- Generator: Adobe Illustrator 19.0.0, SVG Export Plug-In . SVG Version: 6.00 Build 0)  -->
<svg version="1.1" id="Layer_1" xmlns="http://www.w3.org/2000/svg" xmlns:xlink="http://www.w3.org/1999/xlink" x="0px" y="0px"
	 viewBox="26 -26 64 64" style="enable-background:new 26 -26 64 64;" xml:space="preserve">
<style type="text/css">
	.st0{fill:#424143;}
	.st1{fill:#F15D2A;}
</style>
<path class="st0" d="M81.8,0.9L58.1-14.6L34.2,1.8l1.1,1.7l3.2-2.2v25.4h38.4V0.1l3.8,2.5L81.8,0.9z M74.9,24.6H40.5V-0.1l17.6-12.1
	l16.8,11V24.6z"/>
<g id="XMLID_480_">
	<g id="XMLID_11_">
		<path id="XMLID_12_" class="st1" d="M65.8,5.2c0.8,0,1.4,0.5,1.6,1.2c0.3,1-0.5,1.9-1.5,1.9c0,0-14.2,0-15.3,0
			c-1.2,0-1.9-1.3-1.3-2.3c0.3-0.5,0.8-0.8,1.4-0.8C52.6,5.2,63.8,5.2,65.8,5.2z"/>
	</g>
</g>
<g id="XMLID_2_">
	<g id="XMLID_8_">
		<path id="XMLID_9_" class="st1" d="M65.8,10.1c0.8,0,1.4,0.5,1.6,1.2c0.3,1-0.5,1.9-1.5,1.9c0,0-14.2,0-15.3,0
			c-1.2,0-1.9-1.3-1.3-2.3c0.3-0.5,0.8-0.8,1.4-0.8C52.6,10.1,63.8,10.1,65.8,10.1z"/>
	</g>
</g>
<g id="XMLID_5_">
	<g id="XMLID_4_">
		<path id="XMLID_6_" class="st1" d="M65.8,15.1c0.8,0,1.4,0.5,1.6,1.2c0.3,1-0.5,1.9-1.5,1.9c0,0-14.2,0-15.3,0
			c-1.2,0-1.9-1.3-1.3-2.3c0.3-0.5,0.8-0.8,1.4-0.8C52.6,15.1,63.8,15.1,65.8,15.1z"/>
	</g>
</g>
</svg>
