<?xml version="1.0" encoding="iso-8859-1"?>
<!-- Generator: Adobe Illustrator 19.0.0, SVG Export Plug-In . SVG Version: 6.00 Build 0)  -->
<svg version="1.1" id="Layer_1" xmlns="http://www.w3.org/2000/svg" xmlns:xlink="http://www.w3.org/1999/xlink" x="0px" y="0px"
	 viewBox="0 0 47 47" style="enable-background:new 0 0 47 47;" xml:space="preserve">
<circle id="XMLID_1_" style="display:none;fill:#FFFFFF;" cx="-76.21" cy="24.509" r="88.21"/>
<circle id="XMLID_2_" style="fill:#F15D2A;" cx="23.5" cy="23.5" r="23.5"/>
<g id="XMLID_145_">
</g>
<g id="XMLID_7_" style="display:none;">
	<g id="XMLID_489_" style="display:inline;">
		<path id="XMLID_490_" style="fill:#F15D2A;" d="M-42.449-14.651c0,0,21.478,2.316,23.001-17.335c0,0,8.707,12.107-4.756,21.192
			C-24.203-10.794-34.235-5.384-42.449-14.651z"/>
	</g>
	<g id="XMLID_487_" style="display:inline;">
		<polygon id="XMLID_488_" style="fill:#F15D2A;" points="-33.142,-9.06 -33.142,-5.596 -30.619,-3.546 -33.142,-1.27 
			-33.142,3.725 -30.783,5.775 -33.142,7.884 -33.142,13.837 -29.533,16.14 -25.823,11.466 -25.913,-9.06 		"/>
	</g>
	<g id="XMLID_469_" style="display:inline;">
		<g id="XMLID_483_">
			<path id="XMLID_484_" style="fill:#424143;" d="M-31.058-7.832c-8.588,0-15.594-6.967-15.633-15.564
				c-0.037-8.62,6.945-15.664,15.564-15.702c0.024,0,0.048,0,0.071,0c4.149,0,8.055,1.607,11.003,4.53
				c2.966,2.94,4.61,6.858,4.628,11.034c0.037,8.62-6.944,15.664-15.564,15.702h0.001C-31.011-7.832-31.035-7.832-31.058-7.832z
				 M-31.055-36.64c-0.02,0-0.04,0-0.06,0c-7.264,0.032-13.149,5.969-13.118,13.234c0.032,7.245,5.937,13.117,13.175,13.117
				c0.019,0,0.04,0,0.059,0h0.001c7.264-0.032,13.148-5.968,13.117-13.234c-0.016-3.519-1.4-6.822-3.9-9.3
				C-24.267-35.286-27.559-36.64-31.055-36.64z"/>
		</g>
		<g id="XMLID_481_">
			<polygon id="XMLID_482_" style="fill:#424143;" points="-29.412,19.139 -37.289,12.686 -37.312,7.486 -34.854,7.475 
				-34.836,11.518 -29.822,15.626 -27.05,11.988 -27.146,-10.002 -24.689,-10.012 -24.588,12.813 			"/>
		</g>
		<g id="XMLID_478_">
			
				<rect id="XMLID_479_" x="-38.607" y="-0.001" transform="matrix(0.0046 1 -1 0.0046 -34.718 37.3316)" style="fill:#424143;" width="4.994" height="2.457"/>
		</g>
		<g id="XMLID_476_">
			
				<rect id="XMLID_477_" x="-38.412" y="-9.086" transform="matrix(0.0042 1 -1 0.0042 -43.8545 28.3258)" style="fill:#424143;" width="4.523" height="2.457"/>
		</g>
		<g id="XMLID_472_">
			<path id="XMLID_473_" style="fill:#424143;" d="M-30.933-23.367c-1.37,0-2.659-0.53-3.633-1.496
				c-0.979-0.971-1.522-2.264-1.528-3.643c-0.012-2.846,2.293-5.172,5.138-5.184c0.008,0,0.016,0,0.024,0
				c2.837,0,5.15,2.3,5.162,5.139c0.006,1.379-0.526,2.677-1.496,3.656s-2.264,1.522-3.643,1.528l-0.006-1.229l0.006,1.229
				C-30.917-23.367-30.926-23.367-30.933-23.367z M-30.932-31.233c-0.005,0-0.008,0-0.012,0c-1.492,0.007-2.699,1.225-2.693,2.716
				c0.006,1.487,1.218,2.692,2.703,2.692c0.005,0,0.008,0,0.012,0c0.724-0.003,1.402-0.287,1.91-0.8s0.787-1.193,0.784-1.916
				C-28.233-30.027-29.446-31.233-30.932-31.233z"/>
		</g>
		<g id="XMLID_470_">
			<path id="XMLID_471_" style="fill:#424143;" d="M-44.726-28.916C-59.034-40.649-58.21-41.83-57.413-42.971
				c0.665-0.952,2.052-2.927,26.549,11.518l-1.248,2.117c-8.67-5.112-18.414-10.286-22.295-11.59
				c1.222,1.421,4.169,4.312,11.239,10.11L-44.726-28.916z"/>
		</g>
	</g>
	<g id="XMLID_425_" style="display:inline;">
		<g id="XMLID_466_">
			<g id="XMLID_467_">
				<path id="XMLID_468_" style="fill:#F15D2A;" d="M-45.177,35.277c0,0-7.695,11.286-20.162,10.671
					C-78.01,55.49-83.335,59.247-81.807,59.91c1.93,0.838,4.316,2.799,5.233,7.38h22.983c0,0,1.847-8.619,8.414-8.619V35.277z"/>
			</g>
		</g>
		<g id="XMLID_463_">
			<g id="XMLID_464_">
				<path id="XMLID_465_" style="fill:#F15D2A;" d="M-84.577,18.553c0,0,7.695-11.286,20.162-10.671s19.238,10.671,19.238,10.671
					V-5.456c0,0-6.361,0.205-8.003-8.003h-22.983c0,0-1.847,8.619-8.414,8.619V18.553z"/>
			</g>
		</g>
		<g id="XMLID_460_">
			<g id="XMLID_461_">
				<circle id="XMLID_462_" style="fill:#424143;" cx="-124.387" cy="75.498" r="2.873"/>
			</g>
		</g>
		<g id="XMLID_458_">
			<path id="XMLID_459_" style="fill:#424143;" d="M-89.642,42.387"/>
		</g>
		<g id="XMLID_456_">
			<path id="XMLID_457_" style="fill:#424143;" d="M-89.642,65.604"/>
		</g>
		<g id="XMLID_454_">
			<polygon id="XMLID_455_" style="fill:#424143;" points="-37.636,74.345 -90.871,74.345 -90.871,65.604 -88.414,65.604 
				-88.414,71.888 -40.093,71.888 -40.093,19.681 -37.636,19.681 			"/>
		</g>
		<g id="XMLID_452_">
			<path id="XMLID_453_" style="fill:#424143;" d="M-38.865,19.681"/>
		</g>
		<g id="XMLID_450_">
			<path id="XMLID_451_" style="fill:#424143;" d="M-56.327-19.535"/>
		</g>
		<g id="XMLID_448_">
			<polygon id="XMLID_449_" style="fill:#424143;" points="-88.414,34.331 -90.871,34.331 -90.871,-20.764 -56.327,-20.764 
				-56.327,-18.306 -88.414,-18.306 			"/>
		</g>
		<g id="XMLID_446_">
			<polygon id="XMLID_447_" style="fill:#424143;" points="-32.033,78.808 -84.984,78.808 -90.89,74.409 -89.422,72.439 
				-84.171,76.351 -34.491,76.351 -34.491,23.201 -32.033,23.201 			"/>
		</g>
		<g id="XMLID_444_">
			<path id="XMLID_445_" style="fill:#424143;" d="M-97.597-0.941h-2.457v-20.712c0-4.08,3.319-7.4,7.399-7.4h7.052v2.457h-7.052
				c-2.725,0-4.941,2.217-4.941,4.943V-0.941z"/>
		</g>
		<g id="XMLID_442_">
			<rect id="XMLID_443_" x="-83.346" y="-29.053" style="fill:#424143;" width="3.078" height="2.457"/>
		</g>
		<g id="XMLID_440_">
			<path id="XMLID_441_" style="fill:#424143;" d="M-30.301,87.705H-34.3v-2.457h3.999c2.725,0,4.941-2.217,4.941-4.942V28.608
				h2.457v51.698C-22.902,84.386-26.221,87.705-30.301,87.705z"/>
		</g>
		<g id="XMLID_438_">
			<rect id="XMLID_439_" x="-40.149" y="85.248" style="fill:#424143;" width="2.462" height="2.457"/>
		</g>
		<g id="XMLID_434_">
			<path id="XMLID_435_" style="fill:#424143;" d="M-114.852,72.635l-15.873-29.223l0.436-0.623
				c0.082-0.117,8.222-11.842,9.002-19.924c0.012-0.171,1.793-20.004,31.608-20.901l1.266-0.038v33.958
				c0,0.76,0.408,1.411,1.091,1.744c0.684,0.332,1.45,0.253,2.046-0.216l15.86-12.409c3.558-2.364,11.447-5.111,16.386,1.018
				c1.432,1.904,2.865,6.864-1.77,12.244l-0.137,0.135l-8.04,6.801c-0.092,0.056-9.34,5.763-18.198,14.969
				c-6.987,7.262-11.603,8.577-15.197,8.905c-3.155,0.289-5.937,0.713-8.505,1.296L-114.852,72.635z M-127.845,43.565l14.265,26.261
				l8.157-1.853c2.676-0.608,5.563-1.048,8.827-1.346c3.3-0.302,7.238-1.5,13.649-8.163c8.739-9.083,17.594-14.684,18.604-15.31
				l7.741-6.566c4.43-5.205,1.661-9.021,1.632-9.06c-4.758-5.902-12.676-0.755-13.011-0.535l-15.782,12.353
				c-1.337,1.044-3.114,1.231-4.637,0.49c-1.525-0.743-2.472-2.258-2.472-3.953V4.47c-26.297,1.305-27.912,17.889-27.968,18.605
				C-119.583,30.791-126.077,40.93-127.845,43.565z"/>
		</g>
		<g id="XMLID_432_">
			<polygon id="XMLID_433_" style="fill:#424143;" points="-127.978,88.775 -129.195,86.64 -112.486,77.109 -132.459,40.36 
				-140.406,44.695 -141.582,42.538 -131.475,37.025 -109.176,78.05 			"/>
		</g>
		<g id="XMLID_429_">
			<g id="XMLID_430_">
				<circle id="XMLID_431_" style="fill:#FFFFFF;" cx="-64.877" cy="-0.942" r="5.028"/>
			</g>
		</g>
		<g id="XMLID_426_">
			<g id="XMLID_427_">
				<circle id="XMLID_428_" style="fill:#FFFFFF;" cx="-64.877" cy="55.49" r="5.028"/>
			</g>
		</g>
	</g>
</g>
<g id="XMLID_423_">
</g>
<g id="XMLID_375_">
</g>
<g id="XMLID_373_">
</g>
<g id="XMLID_365_">
</g>
<g id="XMLID_363_">
</g>
<g id="XMLID_361_">
</g>
<g id="XMLID_8_" style="display:none;">
	<g id="XMLID_194_" style="display:inline;">
	</g>
	<g id="XMLID_147_" style="display:inline;">
	</g>
	<g id="XMLID_143_" style="display:inline;">
	</g>
	<g id="XMLID_141_" style="display:inline;">
	</g>
	<g id="XMLID_641_" style="display:inline;">
		<g id="XMLID_642_">
			<path id="XMLID_643_" style="fill:#F15D2A;" d="M-124.725,24.896l-2.577,7.208c7.907,1.731,13.971,6.036,18.875,11.961
				c2.125,1.347,3.526,3.584,3.809,6.083l1.907,16.832l5.929,12.185h5.232c0,0-0.512-29.49-5.837-40.076
				c-4.608-1.189-7.827-0.556-14.448-7.07S-124.725,24.896-124.725,24.896z"/>
		</g>
	</g>
	<g id="XMLID_638_" style="display:inline;">
		<g id="XMLID_639_">
			<rect id="XMLID_640_" x="-95.951" y="-37.206" style="fill:#424143;" width="8.805" height="2.457"/>
		</g>
	</g>
	<g id="XMLID_631_" style="display:inline;">
		<g id="XMLID_636_">
			<path id="XMLID_637_" style="fill:#F15D2A;" d="M-52.844-34.083h-33.79v-1.536c0-4.75,3.851-8.601,8.601-8.601h16.588
				c4.75,0,8.601,3.851,8.601,8.601V-34.083z"/>
		</g>
		<g id="XMLID_632_">
			<path id="XMLID_633_" style="fill:#424143;" d="M-51.615-32.854h-36.248v-2.765c0-5.42,4.41-9.83,9.83-9.83h16.588
				c5.42,0,9.83,4.41,9.83,9.83V-32.854z M-85.405-35.312h31.333v-0.307c0-4.065-3.307-7.372-7.372-7.372h-16.588
				c-4.065,0-7.372,3.307-7.372,7.372V-35.312z"/>
		</g>
	</g>
	<g id="XMLID_628_" style="display:inline;">
		<g id="XMLID_629_">
			<path id="XMLID_630_" style="fill:#F15D2A;" d="M-103.361-29.782h-11.088c-6.524,0-11.813,5.289-11.813,11.813v4.008h34.713
				v-4.008C-91.549-24.494-96.838-29.782-103.361-29.782z"/>
		</g>
	</g>
	<g id="XMLID_618_" style="display:inline;">
		<g id="XMLID_619_">
			<rect id="XMLID_620_" x="-86.634" y="8.308" style="fill:#424143;" width="15.052" height="2.457"/>
		</g>
	</g>
	<g id="XMLID_615_" style="display:inline;">
		<g id="XMLID_616_">
			<rect id="XMLID_617_" x="-91.549" y="18.906" style="fill:#424143;" width="19.967" height="2.457"/>
		</g>
	</g>
	<g id="XMLID_612_" style="display:inline;">
		<g id="XMLID_613_">
			<rect id="XMLID_614_" x="-86.634" y="28.429" style="fill:#424143;" width="9.216" height="2.457"/>
		</g>
	</g>
	<g id="XMLID_609_" style="display:inline;">
		<g id="XMLID_610_">
			<rect id="XMLID_611_" x="-74.193" y="28.429" style="fill:#424143;" width="2.611" height="2.457"/>
		</g>
	</g>
	<g id="XMLID_604_" style="display:inline;">
		<g id="XMLID_605_">
			<path id="XMLID_606_" style="fill:#F15D2A;" d="M-54.149,3.393c-5.886,0-10.675-4.788-10.675-10.675
				c0-5.886,4.789-10.675,10.675-10.675c5.886,0,10.675,4.788,10.675,10.675C-43.475-1.395-48.264,3.393-54.149,3.393z
				 M-54.149-15.498c-4.531,0-8.217,3.686-8.217,8.217c0,4.531,3.686,8.217,8.217,8.217c4.531,0,8.217-3.686,8.217-8.217
				C-45.932-11.812-49.618-15.498-54.149-15.498z"/>
		</g>
	</g>
	<g id="XMLID_599_" style="display:inline;">
		<g id="XMLID_600_">
			<path id="XMLID_601_" style="fill:#F15D2A;" d="M-54.149,30.013c-5.01,0-9.086-4.076-9.086-9.086c0-5.01,4.076-9.086,9.086-9.086
				c5.01,0,9.086,4.076,9.086,9.086C-45.063,25.937-49.139,30.013-54.149,30.013z M-54.149,13.933c-3.857,0-6.994,3.138-6.994,6.994
				c0,3.857,3.138,6.994,6.994,6.994c3.857,0,6.994-3.138,6.994-6.994C-47.155,17.07-50.293,13.933-54.149,13.933z"/>
		</g>
	</g>
	<g id="XMLID_594_" style="display:inline;">
		<g id="XMLID_595_">
			<path id="XMLID_596_" style="fill:#F15D2A;" d="M-54.149,52.248c-5.01,0-9.086-4.076-9.086-9.086s4.076-9.086,9.086-9.086
				c5.01,0,9.086,4.076,9.086,9.086S-49.139,52.248-54.149,52.248z M-54.149,36.168c-3.857,0-6.994,3.138-6.994,6.994
				s3.138,6.994,6.994,6.994c3.857,0,6.994-3.138,6.994-6.994S-50.293,36.168-54.149,36.168z"/>
		</g>
	</g>
	<g id="XMLID_591_" style="display:inline;">
		<g id="XMLID_592_">
			<polygon id="XMLID_593_" style="fill:#424143;" points="-53.816,-1.922 -59.249,-6.327 -57.701,-8.236 -54.483,-5.627 
				-51.343,-10.951 -49.226,-9.703 			"/>
		</g>
	</g>
	<g id="XMLID_588_" style="display:inline;">
		<g id="XMLID_589_">
			<polygon id="XMLID_590_" style="fill:#424143;" points="-53.865,25.044 -58.49,21.295 -57.172,19.67 -54.433,21.891 
				-51.76,17.359 -49.959,18.421 			"/>
		</g>
	</g>
	<g id="XMLID_585_" style="display:inline;">
		<g id="XMLID_586_">
			<polygon id="XMLID_587_" style="fill:#424143;" points="-53.865,47.528 -58.49,43.778 -57.172,42.153 -54.433,44.374 
				-51.76,39.842 -49.959,40.904 			"/>
		</g>
	</g>
	<g id="XMLID_582_" style="display:inline;">
		<g id="XMLID_583_">
			<rect id="XMLID_584_" x="-125.441" y="-15.857" style="fill:#424143;" width="45.258" height="2.457"/>
		</g>
	</g>
	<g id="XMLID_579_" style="display:inline;">
		<g id="XMLID_580_">
			<path id="XMLID_581_" style="fill:#424143;" d="M-136.602,0.202c-9.832-22.388,0.982-34.604,1.447-35.113l1.814,1.657
				l-0.907-0.829l0.91,0.826c-0.42,0.465-10.171,11.622-1.013,32.47L-136.602,0.202z"/>
		</g>
	</g>
	<g id="XMLID_574_" style="display:inline;">
		<g id="XMLID_575_">
			<path id="XMLID_576_" style="fill:#424143;" d="M-90.317,80.394h-42.867l-0.04-1.187c-1.429-42.487,9.75-60.593,10.226-61.343
				l0.847-1.334l1.084,1.15c8.998,9.55,18.924,6.685,19.024,6.655l1.004-0.304l0.457,0.944
				c10.042,20.698,10.256,52.83,10.261,54.187L-90.317,80.394z M-130.804,77.937h38.006c-0.144-6.055-1.246-33.037-9.576-51.007
				c-2.891,0.545-11.267,1.252-19.296-6.374C-124.132,25.435-131.776,43.487-130.804,77.937z"/>
		</g>
	</g>
	<g id="XMLID_571_" style="display:inline;">
		<g id="XMLID_572_">
			<rect id="XMLID_573_" x="-105.1" y="13.291" style="fill:#424143;" width="2.457" height="6.844"/>
		</g>
	</g>
	<g id="XMLID_568_" style="display:inline;">
		<g id="XMLID_569_">
			<rect id="XMLID_570_" x="-120.937" y="5.237" style="fill:#424143;" width="2.457" height="9.216"/>
		</g>
	</g>
	<g id="XMLID_565_" style="display:inline;">
		<g id="XMLID_566_">
			<path id="XMLID_567_" style="fill:#424143;" d="M-100.104,15.082c-3.516,0.001-7.663-1.507-12.388-4.508l1.318-2.075
				c5.823,3.699,10.687,4.938,14.063,3.579c3.077-1.237,4.137-4.26,4.334-4.91V-1.04l2.827-1.466
				c0.241-4.737-2.694-11.561-2.725-11.633l-0.102-0.235v-6.808c0-6.718-5.467-12.185-12.185-12.185h-7.886
				c-3.255,0-6.315,1.268-8.617,3.57c-2.301,2.301-3.569,5.362-3.569,8.617l0.002,13.898c-0.16,4.446,4.529,9.853,5.853,11.289
				h2.748v-4.397h2.457v6.855h-6.246l-0.361-0.363c-0.292-0.293-7.13-7.258-6.908-13.428l-0.004-13.853
				c-0.001-3.911,1.523-7.589,4.287-10.355c2.766-2.766,6.444-4.29,10.355-4.29h7.886c8.074,0,14.643,6.568,14.643,14.642v6.304
				c0.583,1.4,3.348,8.367,2.756,13.298l-0.078,0.646l-2.678,1.388l-0.035,7.174c-0.049,0.199-1.243,4.881-5.84,6.73
				C-97.395,14.841-98.699,15.082-100.104,15.082z"/>
		</g>
	</g>
	<g id="XMLID_562_" style="display:inline;">
		<g id="XMLID_563_">
			<path id="XMLID_564_" style="fill:#424143;" d="M-111.519,2.196c-4.705-1.676-7.622-3.753-8.67-6.175
				c-0.604-1.395-0.588-2.899,0.047-4.35c0.943-2.156,3.165-3.419,5.39-3.073c0.991,0.155,1.784,0.562,2.417,1.099v-4.325h2.457
				v9.523l-2.45,0.13c-0.004-0.032-0.434-3.629-2.802-3.998c-1.115-0.176-2.273,0.513-2.761,1.629
				c-0.364,0.833-0.378,1.615-0.043,2.389c0.527,1.218,2.21,3.045,7.24,4.836L-111.519,2.196z"/>
		</g>
	</g>
	<g id="XMLID_559_" style="display:inline;">
		<g id="XMLID_560_">
			<path id="XMLID_561_" style="fill:#424143;" d="M-94.126,6.786c-1.764,0-4.001-0.411-5.75-2.099l1.706-1.769
				c2.306,2.225,6.242,1.147,6.284,1.136l0.678,2.362C-91.31,6.447-92.523,6.786-94.126,6.786z"/>
		</g>
	</g>
	<g id="XMLID_556_" style="display:inline;">
		<g id="XMLID_557_">
			<path id="XMLID_558_" style="fill:#424143;" d="M-99.141-7.092l-2.429-0.378c0.023-0.145,0.605-3.565,4.962-4.077l0.288,2.441
				C-98.845-8.81-99.139-7.11-99.141-7.092z"/>
		</g>
	</g>
	<g id="XMLID_553_" style="display:inline;">
		<g id="XMLID_554_">
			<polygon id="XMLID_555_" style="fill:#424143;" points="-119.249,79.65 -123.189,70.458 -123.189,44.249 -120.731,44.249 
				-120.731,69.954 -116.991,78.681 			"/>
		</g>
	</g>
	<g id="XMLID_550_" style="display:inline;">
		<g id="XMLID_551_">
			<path id="XMLID_552_" style="fill:#424143;" d="M-103.052,79.789l-6.609-11.225l-0.773-22.234
				c-0.55-1.447-4.757-11.362-17.111-12.556l0.238-2.445c14.66,1.417,19.077,13.838,19.258,14.366l0.065,0.356l0.757,21.805
				l6.292,10.687L-103.052,79.789z"/>
		</g>
	</g>
	<g id="XMLID_547_" style="display:inline;">
		<g id="XMLID_548_">
			<path id="XMLID_549_" style="fill:#424143;" d="M-97.859,40.319c-1.992,0-6.067-0.463-10.364-3.675
				c-4.723-4.049-13.424-10.068-16.916-9.169l-0.605-2.382c5.876-1.495,17.724,8.491,19.056,9.635
				c4.98,3.719,9.678,3.093,9.724,3.087l0.367,2.43C-96.658,40.254-97.113,40.319-97.859,40.319z"/>
		</g>
	</g>
	<g id="XMLID_520_" style="display:inline;">
		<path id="XMLID_521_" style="fill:#424143;" d="M-55.716,9.599c-9.434,0-17.11-7.676-17.11-17.111s7.676-17.111,17.11-17.111
			s17.11,7.676,17.11,17.111S-46.282,9.599-55.716,9.599z M-55.716-22.165c-8.079,0-14.652,6.573-14.652,14.653
			s6.573,14.653,14.652,14.653s14.652-6.573,14.652-14.653S-47.637-22.165-55.716-22.165z"/>
	</g>
	<g id="XMLID_491_" style="display:inline;">
		<g id="XMLID_518_">
			<polygon id="XMLID_519_" style="fill:#424143;" points="-26.119,-37.206 -51.922,-37.206 -51.922,-34.748 -28.576,-34.748 
				-28.576,1.492 -26.119,2.911 			"/>
		</g>
		<g id="XMLID_516_">
			<path id="XMLID_517_" style="fill:#424143;" d="M-28.576,33.999c0.959,0,1.788,0,2.457,0V11.44l-2.457-1.383V33.999z"/>
		</g>
		<g id="XMLID_514_">
			<polygon id="XMLID_515_" style="fill:#424143;" points="-87.146,71.998 -87.146,74.456 -46.292,74.456 -46.259,71.998 			"/>
		</g>
		<g id="XMLID_512_">
			<path id="XMLID_513_" style="fill:#424143;" d="M-28.519,61.302c0-0.19-0.02-0.375-0.058-0.554v0.942
				C-28.557,61.561-28.519,61.437-28.519,61.302z"/>
		</g>
		<g id="XMLID_510_">
			<polygon id="XMLID_511_" style="fill:#424143;" points="-33.491,7.293 -35.949,5.91 -35.949,36.534 -33.491,36.534 			"/>
		</g>
		<g id="XMLID_508_">
			<rect id="XMLID_509_" x="-87.146" y="62.834" style="fill:#424143;" width="40.854" height="2.457"/>
		</g>
		<g id="XMLID_506_">
			<polygon id="XMLID_507_" style="fill:#424143;" points="-33.491,-28.247 -88.784,-28.247 -88.784,-25.789 -35.949,-25.789 
				-35.949,-2.766 -33.491,-1.347 			"/>
		</g>
		<g id="XMLID_504_">
			<path id="XMLID_505_" style="fill:#424143;" d="M-11.584,12.557c-0.247-0.95-0.851-1.743-1.7-2.234l-12.835-7.412l-2.457-1.419
				l-4.915-2.838l-2.457-1.419l-2.88-1.663L-40.057-2.3l4.109,2.373l2.457,1.419l4.915,2.838l2.457,1.419l11.606,6.702
				c0.157,0.091,0.279,0.219,0.377,0.365c0.074,0.109,0.139,0.226,0.173,0.357c0.08,0.308,0.034,0.627-0.128,0.9
				c-0.331,0.55-1.025,0.736-1.586,0.421l-10.441-5.874l-2.457-1.383l-4.915-2.765l-2.457-1.383l-5.325-2.996l-0.409-0.23
				l-1.205,2.142l6.938,3.903l2.457,1.383l4.915,2.765l2.457,1.383l9.236,5.196c0.57,0.32,1.184,0.473,1.79,0.473
				c1.232,0,2.425-0.632,3.109-1.773C-11.479,14.494-11.338,13.507-11.584,12.557z"/>
		</g>
		<g id="XMLID_502_">
			<path id="XMLID_503_" style="fill:#424143;" d="M-26.061,61.302c0-0.195-0.036-0.38-0.058-0.57v1.154
				C-26.096,61.692-26.061,61.501-26.061,61.302z"/>
		</g>
		<g id="XMLID_492_">
			<g id="XMLID_497_">
				<path id="XMLID_498_" style="fill:#424143;" d="M-15.589,54.065h-1.24v-6.031c0-3.56-1.914-6.674-4.761-8.39
					c-0.759-0.458-1.583-0.815-2.457-1.054c-0.824-0.226-1.687-0.357-2.582-0.357c-0.805,0-1.584,0.108-2.333,0.292
					c-0.87,0.214-1.696,0.538-2.457,0.967c-2.986,1.681-5.011,4.878-5.011,8.542v6.031h-1.322c-2.211,0-4.01,1.799-4.01,4.011v9.468
					v2.457v6.383c0,0.111,0.024,0.215,0.033,0.324c0.078,0.951,0.473,1.81,1.099,2.457c0.73,0.755,1.748,1.229,2.878,1.229h22.164
					c2.211,0,4.01-1.799,4.01-4.01V58.076C-11.579,55.864-13.377,54.065-15.589,54.065z M-33.973,48.034
					c0-2.219,0.993-4.206,2.553-5.554c0.713-0.616,1.545-1.097,2.457-1.403c0.734-0.247,1.517-0.386,2.333-0.386
					c0.91,0,1.778,0.174,2.582,0.478c0.922,0.348,1.755,0.873,2.457,1.539c1.415,1.34,2.304,3.23,2.304,5.327v6.031h-2.304h-2.457
					h-4.915h-2.457h-2.553V48.034z M-14.036,76.384c0,0.856-0.696,1.553-1.553,1.553h-6.001h-16.163
					c-0.742,0-1.334-0.533-1.487-1.229c-0.024-0.108-0.066-0.209-0.066-0.324v-6.383v-2.457v-9.468c0-0.857,0.696-1.553,1.553-1.553
					h1.322h5.011h2.457h4.915h2.457h4.761h1.24c0.857,0,1.553,0.697,1.553,1.553V76.384z"/>
			</g>
			<g id="XMLID_493_">
				<path id="XMLID_494_" style="fill:#424143;" d="M-24.047,61.599c-0.779-0.471-1.682-0.758-2.657-0.758
					c-0.813,0-1.573,0.206-2.258,0.542c-1.086,0.533-1.962,1.423-2.457,2.531c-0.287,0.643-0.455,1.35-0.455,2.099
					c0,0.531,0.103,1.041,0.258,1.531c0.235,0.744,0.616,1.432,1.147,1.999l-0.083,0.458l-0.951,5.225h7.456h1.958l-0.898-5.631
					c0.779-0.807,1.265-1.858,1.397-2.999v-1.154C-21.772,63.809-22.703,62.411-24.047,61.599z M-24.047,66.401
					c-0.136,0.929-0.716,1.738-1.601,2.112l0.028,0.066l-0.016,0.003l0.667,4.187h-3.59l0.751-4.128l-0.049-0.009l0.06-0.135
					c-0.485-0.214-0.884-0.562-1.165-0.986c-0.289-0.436-0.455-0.954-0.455-1.498c0-0.554,0.169-1.069,0.455-1.499
					c0.487-0.731,1.316-1.214,2.258-1.214c1.307,0,2.4,0.928,2.657,2.16c0.037,0.179,0.058,0.364,0.058,0.554
					C-23.99,66.146-24.028,66.271-24.047,66.401z"/>
			</g>
		</g>
	</g>
	<g id="XMLID_621_" style="display:inline;">
		<g id="XMLID_626_">
			<path id="XMLID_627_" style="fill:#F15D2A;" d="M-68.072-51.439h-2.259c-2.727,0-4.937,2.211-4.937,4.937v5.2h12.134v-5.2
				C-63.134-49.228-65.345-51.439-68.072-51.439z"/>
		</g>
		<g id="XMLID_622_">
			<path id="XMLID_623_" style="fill:#424143;" d="M-61.906-40.073h-14.591v-5.299c0-4.023,3.272-7.296,7.296-7.296
				c4.023,0,7.296,3.273,7.296,7.296V-40.073z M-74.039-42.531h9.676v-2.841c0-2.667-2.171-4.838-4.838-4.838
				c-2.667,0-4.838,2.171-4.838,4.838V-42.531z"/>
		</g>
	</g>
	<g id="XMLID_377_" style="display:inline;">
		
			<rect id="XMLID_378_" x="-135.099" y="2.034" transform="matrix(0.463 0.8864 -0.8864 0.463 -69.0107 120.4321)" style="fill:#424143;" width="2.408" height="2.458"/>
	</g>
	<g id="XMLID_371_" style="display:inline;">
	</g>
	<g id="XMLID_369_" style="display:inline;">
	</g>
	<g id="XMLID_367_" style="display:inline;">
	</g>
	<g id="XMLID_359_" style="display:inline;">
	</g>
</g>
<g id="XMLID_4_" style="display:none;">
	<g id="XMLID_544_" style="display:inline;">
		<g id="XMLID_545_">
			<path id="XMLID_546_" style="fill:#F15D2A;" d="M-25.882,58.764h-98.429c-3.866,0-7-3.134-7-7V48.32h112.429v3.444
				C-18.882,55.63-22.016,58.764-25.882,58.764z"/>
		</g>
	</g>
	<g id="XMLID_541_" style="display:inline;">
		<g id="XMLID_542_">
			<path id="XMLID_543_" style="fill:#F15D2A;" d="M-85.849,58.764h18.585l1.075,17.817h21.046l-0.465,4.301h-58.826l1.236-4.57
				c0.485-1.795,1.989-3.132,3.829-3.403l10.408-1.534L-85.849,58.764z"/>
		</g>
	</g>
	<g id="XMLID_536_" style="display:inline;">
		<g id="XMLID_537_">
			<path id="XMLID_538_" style="fill:#404040;" d="M-60.968,20.959h-58.672v-9.007c0-2.733,1.125-5.392,3.086-7.297l4.379-4.253
				c1.429-1.388,3.313-2.152,5.305-2.152h17.178c1.478,0,2.914,0.426,4.153,1.232l9.361,6.09c1.482,0.964,3.198,1.473,4.966,1.473
				h1.056c5.067,0,9.188,4.122,9.188,9.188V20.959z M-117.54,18.859h54.472v-2.625c0-3.909-3.18-7.088-7.088-7.088h-1.056
				c-2.175,0-4.288-0.627-6.111-1.812l-9.362-6.09c-0.897-0.583-1.937-0.892-3.007-0.892h-17.178c-1.443,0-2.807,0.553-3.842,1.558
				l-4.379,4.253c-1.556,1.511-2.449,3.621-2.449,5.79V18.859z"/>
		</g>
	</g>
	<g id="XMLID_533_" style="display:inline;">
		<g id="XMLID_534_">
			<path id="XMLID_535_" style="fill:#F15D2A;" d="M-66.393,18.906v-2.942c0-3.598-2.056-4.401-5.557-4.395l-2.123-0.064
				c-1.738,0-4.304-2.191-5.761-3.049l-7.858-5.198c-0.942-0.555-2.079-1.331-3.202-1.331h-15.186c-1.51,0-2.922,1.014-4.005,1.966
				l-3.871,3.404c-1.564,1.375-2.446,3.265-2.446,5.239v6.37H-66.393z"/>
		</g>
	</g>
	<g id="XMLID_530_" style="display:inline;">
		<g id="XMLID_531_">
			<rect id="XMLID_532_" x="-42.843" y="-2.775" style="fill:#F15D2A;" width="14.13" height="2.457"/>
		</g>
	</g>
	<g id="XMLID_527_" style="display:inline;">
		<g id="XMLID_528_">
			<rect id="XMLID_529_" x="-51.137" y="-2.775" style="fill:#F15D2A;" width="2.765" height="2.457"/>
		</g>
	</g>
	<g id="XMLID_524_" style="display:inline;">
		<g id="XMLID_525_">
			<rect id="XMLID_526_" x="-58.407" y="-2.775" style="fill:#F15D2A;" width="2.457" height="2.457"/>
		</g>
	</g>
	<path id="XMLID_422_" style="display:inline;fill:#FFFFFF;" d="M-110.584,11.409l3.914-4.179c0.483-0.516,1.158-0.808,1.864-0.808
		h14.219c0.505,0,0.998,0.15,1.418,0.43l6.8,4.54c0.097,0.065,0.051,0.215-0.065,0.215h-28.065
		C-110.601,11.607-110.654,11.484-110.584,11.409z"/>
	<g id="XMLID_417_" style="display:inline;">
		<circle id="XMLID_421_" style="fill:#FFFFFF;" cx="-106.831" cy="20.27" r="4.692"/>
		<path id="XMLID_418_" style="fill:#414141;" d="M-106.831,26.191c-3.265,0-5.921-2.656-5.921-5.921s2.655-5.921,5.921-5.921
			c3.265,0,5.922,2.656,5.922,5.921S-103.566,26.191-106.831,26.191z M-106.831,16.806c-1.909,0-3.463,1.554-3.463,3.464
			s1.554,3.464,3.463,3.464c1.91,0,3.464-1.554,3.464-3.464S-104.921,16.806-106.831,16.806z"/>
	</g>
	<circle id="XMLID_416_" style="display:inline;fill:#FFFFFF;" cx="-75.142" cy="20.27" r="4.692"/>
	<g id="XMLID_414_" style="display:inline;">
		<polygon id="XMLID_415_" style="fill:#F15D2A;" points="-114.698,39.258 -119.92,36.647 -114.698,34.036 		"/>
	</g>
	<g id="XMLID_412_" style="display:inline;">
		<polygon id="XMLID_413_" style="fill:#F15D2A;" points="-65.872,34.036 -60.65,36.647 -65.872,39.258 		"/>
	</g>
	<g id="XMLID_379_" style="display:inline;">
		<path id="XMLID_411_" style="fill:#424143;" d="M-114.11-20.489v-2.457h-14.745c-7.961,0-14.438,6.477-14.438,14.438V5.929h2.457
			V-8.509c0-6.606,5.375-11.98,11.98-11.98H-114.11z"/>
		<rect id="XMLID_410_" x="-110.116" y="-22.947" style="fill:#424143;" width="4.608" height="2.457"/>
		<path id="XMLID_409_" style="fill:#424143;" d="M-8.77,55.385c0,6.606-5.375,11.98-11.98,11.98h-14.438v2.457h14.438
			c7.96,0,14.438-6.477,14.438-14.438V40.641H-8.77V55.385z"/>
		<rect id="XMLID_408_" x="-8.77" y="32.039" style="fill:#424143;" width="2.457" height="4.608"/>
		<rect id="XMLID_407_" x="-56.973" y="4.7" style="fill:#424143;" width="28.261" height="2.457"/>
		<rect id="XMLID_406_" x="-41" y="13.608" style="fill:#424143;" width="12.287" height="2.457"/>
		<rect id="XMLID_405_" x="-51.137" y="13.608" style="fill:#424143;" width="5.529" height="2.457"/>
		<rect id="XMLID_404_" x="-116.26" y="88.561" style="fill:#424143;" width="78.025" height="2.457"/>
		<rect id="XMLID_403_" x="-34.856" y="88.561" style="fill:#424143;" width="3.993" height="2.457"/>
		<rect id="XMLID_402_" x="-22.876" y="79.653" style="fill:#424143;" width="3.993" height="2.457"/>
		<path id="XMLID_396_" style="fill:#424143;" d="M-43.611,78.501c0-4.107-3.342-7.449-7.449-7.449h-8.208l-1.382-11.059h32.859
			c5.589,0,10.137-4.548,10.137-10.137V-4.208c0-5.589-4.548-10.137-10.137-10.137h-94.613c-5.589,0-10.137,4.548-10.137,10.137
			v54.064c0,5.589,4.548,10.137,10.137,10.137h33.627l-1.382,11.059h-8.054c-4.107,0-7.449,3.342-7.449,7.449v1.152h-19.813v2.457
			h97.992v-2.457h-16.127V78.501z M-122.403-11.888h94.613c4.235,0,7.68,3.445,7.68,7.68v51.3h-109.972v-51.3
			C-130.083-8.443-126.638-11.888-122.403-11.888z M-130.083,49.856v-0.307h109.972v0.307c0,4.235-3.445,7.68-7.68,7.68h-94.613
			C-126.638,57.536-130.083,54.091-130.083,49.856z M-86.3,59.993h23.174l1.382,11.059h-25.938L-86.3,59.993z M-103.204,78.501
			c0-2.753,2.239-4.992,4.992-4.992h47.153c2.753,0,4.992,2.239,4.992,4.992v1.152h-57.136V78.501z"/>
		<path id="XMLID_393_" style="fill:#424143;" d="M-81.685,10.37l-6.801-4.54c-0.624-0.416-1.35-0.637-2.1-0.637h-14.219
			c-1.043,0-2.048,0.436-2.76,1.197l-3.913,4.178c-0.368,0.391-0.468,0.962-0.256,1.455c0.212,0.494,0.698,0.813,1.236,0.813h28.065
			c0.598,0,1.116-0.384,1.289-0.956C-80.971,11.307-81.189,10.701-81.685,10.37z M-107.934,10.378l2.162-2.309
			c0.248-0.266,0.601-0.419,0.966-0.419h14.219c0.263,0,0.517,0.077,0.736,0.223l3.752,2.504H-107.934z"/>
		<path id="XMLID_389_" style="fill:#424143;" d="M-99.476,33.373v-1.75c0.28,0.245,0.46,0.491,0.527,0.599l2.103-1.271
			c-0.424-0.711-1.331-1.653-2.63-2.131V27.57h-2.457v1.004c-0.479,0.067-0.983,0.193-1.516,0.411c-1.222,0.5-1.997,1.6-2.071,2.943
			c-0.077,1.37,0.6,2.688,1.684,3.28c0.554,0.303,1.219,0.41,1.903,0.464v1.916c-0.577-0.225-1.071-0.483-1.345-0.655l-1.32,2.072
			c0.09,0.057,1.207,0.746,2.665,1.169v1.28h2.457v-0.972c0.78-0.05,1.561-0.259,2.27-0.744c0.761-0.521,1.253-1.448,1.316-2.479
			c0.07-1.138-0.367-2.211-1.198-2.943C-97.76,33.723-98.609,33.483-99.476,33.373z M-102.658,33.053
			c-0.216-0.118-0.434-0.529-0.408-0.986c0.022-0.395,0.206-0.666,0.548-0.806c0.208-0.085,0.396-0.129,0.584-0.174v2.124
			C-102.245,33.179-102.514,33.131-102.658,33.053z M-98.595,37.71c-0.255,0.175-0.56,0.255-0.881,0.297v-2.135
			c0.319,0.062,0.602,0.146,0.763,0.288c0.367,0.323,0.382,0.772,0.371,0.95C-98.361,37.416-98.486,37.636-98.595,37.71z"/>
		<path id="XMLID_385_" style="fill:#424143;" d="M-89.065,33.373v-1.751c0.281,0.246,0.461,0.493,0.528,0.6l2.103-1.271
			c-0.424-0.711-1.332-1.653-2.631-2.131V27.57h-2.457v1.005c-0.479,0.067-0.983,0.194-1.516,0.411
			c-1.222,0.5-1.995,1.6-2.071,2.943c-0.077,1.37,0.6,2.688,1.684,3.279c0.554,0.303,1.219,0.41,1.903,0.464v1.915
			c-0.576-0.225-1.07-0.483-1.344-0.655l-1.32,2.072c0.09,0.057,1.206,0.745,2.664,1.168v1.281h2.457v-0.972
			c0.78-0.05,1.561-0.259,2.271-0.744c0.761-0.521,1.253-1.447,1.315-2.478c0.07-1.138-0.366-2.211-1.196-2.944
			C-87.348,33.722-88.198,33.483-89.065,33.373z M-92.247,33.053c-0.216-0.118-0.433-0.529-0.408-0.986
			c0.022-0.395,0.206-0.667,0.548-0.806c0.208-0.085,0.396-0.129,0.584-0.175v2.124C-91.834,33.179-92.103,33.131-92.247,33.053z
			 M-88.183,37.71c-0.255,0.175-0.561,0.255-0.882,0.297v-2.136c0.319,0.062,0.603,0.146,0.764,0.288
			c0.366,0.323,0.38,0.773,0.37,0.951C-87.95,37.417-88.075,37.636-88.183,37.71z"/>
		<path id="XMLID_381_" style="fill:#424143;" d="M-78.467,33.373v-1.751c0.281,0.246,0.461,0.493,0.528,0.6l2.103-1.271
			c-0.424-0.711-1.332-1.653-2.631-2.131V27.57h-2.457v1.005c-0.479,0.067-0.983,0.194-1.516,0.411
			c-1.222,0.5-1.995,1.6-2.071,2.943c-0.077,1.37,0.6,2.688,1.684,3.279c0.554,0.303,1.219,0.41,1.903,0.464v1.915
			c-0.576-0.225-1.07-0.483-1.344-0.655l-1.32,2.072c0.09,0.057,1.206,0.745,2.664,1.168v1.281h2.457v-0.972
			c0.78-0.05,1.561-0.259,2.271-0.744c0.761-0.521,1.253-1.447,1.315-2.478c0.07-1.138-0.366-2.211-1.196-2.944
			C-76.751,33.722-77.6,33.483-78.467,33.373z M-81.649,33.053c-0.216-0.118-0.433-0.529-0.408-0.986
			c0.022-0.395,0.206-0.667,0.548-0.806c0.208-0.085,0.396-0.129,0.584-0.175v2.124C-81.236,33.179-81.505,33.131-81.649,33.053z
			 M-77.585,37.71c-0.256,0.175-0.561,0.255-0.882,0.297v-2.136c0.319,0.062,0.603,0.146,0.764,0.288
			c0.366,0.323,0.38,0.773,0.37,0.951C-77.352,37.417-77.477,37.636-77.585,37.71z"/>
		<polygon id="XMLID_380_" style="fill:#424143;" points="-37.842,24.59 -32.393,23.985 -37.176,29.82 -43.201,29.82 
			-45.483,34.341 -51.645,30.157 -54.663,37.89 -52.373,38.784 -50.476,33.921 -44.55,37.946 -41.689,32.277 -36.012,32.277 
			-30.912,26.055 -30.912,31.049 -28.455,31.049 -28.455,21.075 -38.113,22.148 		"/>
	</g>
	<g id="XMLID_330_" style="display:inline;">
		<path id="XMLID_358_" style="fill:none;" d="M-73.914,23.5c-0.105,0.04-0.214,0.071-0.324,0.101
			C-74.129,23.571-74.02,23.54-73.914,23.5z"/>
		<path id="XMLID_357_" style="fill:none;" d="M-74.502,23.67c-0.192,0.036-0.388,0.057-0.59,0.059
			C-74.891,23.726-74.694,23.706-74.502,23.67z"/>
		<path id="XMLID_356_" style="fill:none;" d="M-75.951,23.625c-0.154-0.038-0.305-0.082-0.45-0.14
			C-76.256,23.543-76.106,23.588-75.951,23.625z"/>
		<path id="XMLID_355_" style="fill:none;" d="M-76.585,23.403c-0.13-0.061-0.255-0.128-0.375-0.204
			C-76.84,23.275-76.715,23.342-76.585,23.403z"/>
		<path id="XMLID_354_" style="fill:none;" d="M-75.142,23.733c0.001,0,0.003,0,0.004,0c-0.224,0-0.441-0.025-0.653-0.066
			C-75.58,23.708-75.365,23.733-75.142,23.733z"/>
		<path id="XMLID_353_" style="fill:none;" d="M-72.93,22.915c-0.048,0.04-0.095,0.082-0.145,0.12
			C-73.025,22.996-72.978,22.955-72.93,22.915z"/>
		<path id="XMLID_352_" style="fill:none;" d="M-71.805,21.147h-0.008c-0.015,0.059-0.036,0.116-0.054,0.174
			C-71.847,21.263-71.82,21.208-71.805,21.147z"/>
		<path id="XMLID_351_" style="fill:none;" d="M-73.386,23.241c-0.074,0.044-0.149,0.085-0.226,0.123
			C-73.536,23.326-73.46,23.286-73.386,23.241z"/>
		<path id="XMLID_350_" style="fill:none;" d="M-106.822,16.788c1.349,0,2.506,0.778,3.081,1.902h22.919
			c0.696-2.495,2.965-4.341,5.679-4.341c2.714,0,4.984,1.846,5.681,4.341h6.171v-2.577c0-3.954-3.217-7.172-7.172-7.172h-2.051
			c-1.6,0-3.156-0.458-4.501-1.325l-8.882-5.726c-1.302-0.84-2.81-1.284-4.361-1.284h-16.684c-1.337,0-2.6,0.512-3.558,1.443
			l-4.515,4.383c-1.478,1.435-2.325,3.44-2.325,5.501v6.757h7.437C-109.328,17.566-108.171,16.788-106.822,16.788z"/>
		<path id="XMLID_349_" style="fill:none;" d="M-72.576,22.575c-0.014,0.016-0.026,0.034-0.041,0.049
			C-72.603,22.609-72.591,22.591-72.576,22.575z"/>
		<path id="XMLID_348_" style="fill:none;" d="M-77.135,23.083c-0.117-0.084-0.228-0.177-0.334-0.275
			C-77.363,22.906-77.253,22.999-77.135,23.083z"/>
		<path id="XMLID_347_" style="fill:none;" d="M-77.605,22.681c-0.129-0.133-0.248-0.277-0.355-0.43
			C-77.853,22.404-77.735,22.548-77.605,22.681z"/>
		<path id="XMLID_346_" style="fill:none;" d="M-78.478,21.147c0.101,0.384,0.269,0.741,0.485,1.061
			c-0.214-0.319-0.365-0.679-0.464-1.061H-78.478z"/>
		<path id="XMLID_345_" style="fill:none;" d="M-75.134,16.847c1.32,0,2.454,0.752,3.031,1.843h0.026
			c-0.577-1.113-1.727-1.884-3.065-1.884c-1.337,0-2.487,0.771-3.064,1.884h0.04C-77.588,17.599-76.455,16.847-75.134,16.847z"/>
		<path id="XMLID_342_" style="fill:#424143;" d="M-70.462,6.483h-2.051c-1.127,0-2.222-0.323-3.169-0.933l-8.882-5.726
			c-1.7-1.097-3.669-1.676-5.693-1.676h-16.684c-1.98,0-3.852,0.759-5.27,2.138l-4.514,4.383c-1.952,1.895-3.072,4.542-3.072,7.263
			v9.215h9.631c-0.076-0.285-0.129-0.578-0.129-0.887c0-0.568,0.15-1.097,0.392-1.571h-7.437v-6.757c0-2.06,0.847-4.065,2.325-5.501
			l4.515-4.383c0.958-0.931,2.221-1.443,3.558-1.443h16.684c1.55,0,3.059,0.444,4.361,1.284l8.882,5.726
			c1.345,0.867,2.901,1.325,4.501,1.325h2.051c3.955,0,7.172,3.218,7.172,7.172v2.577h-6.171c-0.696-2.495-2.966-4.341-5.681-4.341
			c-2.714,0-4.983,1.846-5.679,4.341h-22.919c0.242,0.474,0.392,1.002,0.392,1.571c0,0.308-0.053,0.602-0.129,0.887h22.504
			c0.428,2.847,2.867,5.043,5.832,5.043s5.405-2.196,5.833-5.043h8.476v-5.035C-60.833,10.803-65.153,6.483-70.462,6.483z
			 M-71.805,21.147c-0.016,0.06-0.043,0.115-0.062,0.174c-0.148,0.47-0.389,0.895-0.71,1.254c-0.014,0.016-0.026,0.034-0.041,0.049
			c-0.097,0.105-0.203,0.198-0.312,0.29c-0.048,0.041-0.095,0.082-0.145,0.12c-0.1,0.075-0.204,0.143-0.312,0.207
			c-0.074,0.044-0.149,0.084-0.226,0.123c-0.099,0.049-0.198,0.096-0.302,0.136c-0.105,0.04-0.214,0.071-0.324,0.101
			c-0.088,0.024-0.173,0.052-0.264,0.069c-0.191,0.036-0.388,0.057-0.59,0.059c-0.014,0-0.028,0.004-0.042,0.004
			c-0.001,0-0.002,0-0.004,0c-0.001,0-0.003,0-0.004,0c-0.223,0-0.438-0.026-0.649-0.066c-0.055-0.011-0.106-0.029-0.16-0.042
			c-0.154-0.038-0.305-0.082-0.45-0.14c-0.063-0.025-0.123-0.054-0.184-0.083c-0.13-0.061-0.255-0.128-0.375-0.204
			c-0.059-0.037-0.117-0.075-0.174-0.116c-0.118-0.084-0.228-0.177-0.334-0.275c-0.046-0.042-0.093-0.082-0.137-0.127
			c-0.129-0.134-0.248-0.277-0.355-0.43c-0.01-0.015-0.023-0.027-0.033-0.042c-0.217-0.32-0.384-0.677-0.485-1.061
			c-0.169-0.819,0-1.821,0.272-2.457c0.577-1.113,1.727-1.884,3.064-1.884c1.338,0,2.488,0.771,3.065,1.884h-0.026
			c0.254,0.48,0.412,1.019,0.412,1.6c0,0.298-0.05,0.582-0.121,0.857H-71.805z"/>
		<path id="XMLID_341_" style="fill:#FFFFFF;" d="M-72.617,22.625c-0.097,0.104-0.204,0.198-0.312,0.29
			C-72.821,22.823-72.714,22.729-72.617,22.625z"/>
		<path id="XMLID_340_" style="fill:#FFFFFF;" d="M-77.469,22.808c-0.046-0.042-0.093-0.082-0.137-0.127
			C-77.562,22.726-77.514,22.765-77.469,22.808z"/>
		<path id="XMLID_339_" style="fill:#FFFFFF;" d="M-75.791,23.667c-0.055-0.011-0.106-0.029-0.16-0.042
			C-75.897,23.638-75.846,23.656-75.791,23.667z"/>
		<path id="XMLID_338_" style="fill:#FFFFFF;" d="M-71.866,21.322c-0.151,0.468-0.391,0.895-0.71,1.254
			C-72.256,22.217-72.015,21.792-71.866,21.322z"/>
		<path id="XMLID_337_" style="fill:#FFFFFF;" d="M-76.402,23.485c-0.063-0.025-0.123-0.054-0.184-0.083
			C-76.524,23.431-76.465,23.46-76.402,23.485z"/>
		<path id="XMLID_336_" style="fill:#FFFFFF;" d="M-75.134,23.733c0.015,0,0.028-0.004,0.042-0.004c-0.016,0-0.03,0.004-0.046,0.004
			C-75.137,23.733-75.136,23.733-75.134,23.733z"/>
		<path id="XMLID_335_" style="fill:#FFFFFF;" d="M-73.075,23.034c-0.099,0.075-0.204,0.143-0.312,0.207
			C-73.278,23.177-73.175,23.109-73.075,23.034z"/>
		<path id="XMLID_334_" style="fill:#FFFFFF;" d="M-74.239,23.601c-0.088,0.024-0.173,0.052-0.264,0.069
			C-74.412,23.653-74.326,23.624-74.239,23.601z"/>
		<path id="XMLID_333_" style="fill:#FFFFFF;" d="M-77.96,22.251c-0.01-0.015-0.023-0.028-0.033-0.042
			C-77.983,22.224-77.97,22.236-77.96,22.251z"/>
		<path id="XMLID_332_" style="fill:#FFFFFF;" d="M-73.613,23.364c-0.098,0.049-0.198,0.096-0.302,0.136
			C-73.81,23.46-73.712,23.413-73.613,23.364z"/>
		<path id="XMLID_331_" style="fill:#FFFFFF;" d="M-76.961,23.199c-0.059-0.037-0.118-0.075-0.174-0.116
			C-77.078,23.124-77.02,23.162-76.961,23.199z"/>
	</g>
</g>
<g id="XMLID_9_" style="display:none;">
	<path id="XMLID_24_" style="display:inline;fill:#FFFFFF;" d="M21.834,34.11c0-0.454,0.01-1.237,0.03-2.349l0.015-0.924l0.016-0.97
		c0.01-0.374,0.015-0.728,0.015-1.061c0-0.344-0.005-0.672-0.015-0.985c-0.011-1.605-0.066-3.101-0.167-4.484
		c-0.283-3.626-0.914-6.995-1.894-10.106l4.727-1.5c1.092,3.434,1.788,7.157,2.092,11.167c0.121,1.515,0.187,3.131,0.196,4.849
		c0.01,0.333,0.016,0.677,0.016,1.03c0,0.363-0.006,0.737-0.016,1.121c0,0.313-0.005,0.651-0.015,1.015v0.47l-0.016,0.47
		c-0.021,1.091-0.03,1.844-0.03,2.258H21.834z"/>
</g>
<g id="XMLID_26_" style="display:none;">
	<path id="XMLID_28_" style="display:inline;fill:#FFFFFF;" d="M30.47,11.985c0.021,0.061,0.035,0.111,0.046,0.151
		c0.051,0.162,0.096,0.318,0.137,0.47c0.131,0.465,0.252,0.924,0.363,1.379c0.322,1.394,0.484,2.551,0.484,3.47
		c0,2.111-0.596,3.808-1.787,5.091C28.5,23.869,26.93,24.53,25,24.53c-1,0-1.955-0.197-2.863-0.591
		c0.121,1.505,0.201,3.111,0.242,4.817c0.01,0.646,0.016,1.359,0.016,2.137c0,0.293-0.006,0.627-0.016,1v2.424h-4.97
		c0-0.151,0.005-0.398,0.015-0.742V31.97c0.01-0.323,0.016-0.616,0.016-0.879c0-0.677-0.006-1.304-0.016-1.879
		c-0.02-1.485-0.08-2.884-0.182-4.197c-0.242-3.454-0.762-6.671-1.561-9.651v-0.015c-0.182-0.677-0.369-1.303-0.561-1.879l4.742-1.5
		c0.203,0.616,0.404,1.313,0.606,2.091c0.011,0.041,0.025,0.091,0.046,0.151c0.029,0.081,0.055,0.162,0.075,0.243
		c0.091,0.242,0.187,0.485,0.288,0.727c0.293,0.717,0.621,1.374,0.984,1.97c1.01,1.606,2.056,2.409,3.137,2.409
		c0.484,0,0.838-0.126,1.061-0.379c0.313-0.333,0.47-0.909,0.47-1.727c0-0.485-0.097-1.167-0.288-2.045
		c-0.161-0.728-0.338-1.394-0.529-2l4.727-1.515L30.47,11.985z"/>
</g>
<g id="XMLID_27_">
	<path id="XMLID_31_" style="fill:#FFFFFF;" d="M33.137,12.467c0.04,0.131,0.08,0.278,0.121,0.439
		c0.111,0.445,0.217,0.899,0.318,1.364c0.293,1.364,0.439,2.5,0.439,3.409c0,2-0.385,3.586-1.152,4.757
		c-0.979,1.545-2.398,2.318-4.257,2.318c-1.485,0-2.772-0.49-3.864-1.47l-0.182-0.167c-0.889,0.939-2.03,1.495-3.424,1.667
		c-0.303,0.041-0.556,0.061-0.758,0.061c-0.223,0-0.465-0.015-0.727-0.045c0.09,1.354,0.146,2.798,0.166,4.334
		c0.01,0.586,0.016,1.227,0.016,1.924c0,0.263-0.006,0.565-0.016,0.909v0.849c-0.01,0.272-0.016,0.575-0.016,0.909v0.817h-4.969
		V33.68c0-0.333,0.004-0.637,0.015-0.909v-0.439l0.015-0.454v-0.939c0-0.728-0.005-1.399-0.015-2.016
		c-0.021-1.626-0.091-3.151-0.212-4.576c-0.313-3.788-0.99-7.318-2.03-10.591l4.742-1.5c0.858,3.323,1.403,5.298,1.636,5.924
		c0.414,1.111,0.914,1.672,1.5,1.682c0.111,0,0.207-0.01,0.289-0.03c0.121-0.03,0.227-0.081,0.317-0.151
		c0.253-0.202,0.425-0.561,0.516-1.076c0.091-0.485,0.136-1.025,0.136-1.622c0-0.283-0.01-0.576-0.029-0.878
		c-0.021-0.354-0.057-0.793-0.106-1.318l-0.076-0.682l-0.075-0.697l4.787-0.697c0.061,0.657,0.142,1.323,0.242,2
		c0.132,0.899,0.278,1.692,0.439,2.379c0.435,1.869,0.935,2.808,1.5,2.818h0.016c0.434,0,0.656-0.479,0.667-1.439
		c0-0.979-0.228-2.626-0.683-4.939l4.637-1.303C33.081,12.276,33.106,12.357,33.137,12.467z"/>
</g>
</svg>
